{
  "project_info": {
    "project_number": "947161704642",
    "firebase_url": "https://playroom-12efc.firebaseio.com",
    "project_id": "playroom-12efc",
    "storage_bucket": "playroom-12efc.appspot.com"
  },
  "client": [
    {
      "client_info": {
        "mobilesdk_app_id": "1:947161704642:android:136af1be77e636d0",
        "android_client_info": {
          "package_name": "com.eqvola.playroom"
        }
      },
      "oauth_client": [
        {
          "client_id": "947161704642-7133ti0jfb7go3db438fo1s1dijoimhv.apps.googleusercontent.com",
          "client_type": 3
        }
      ],
      "api_key": [
        {
          "current_key": "AIzaSyB-IB98n4DcMKytGTS0zWBi7iIY2F4NeCk"
        }
      ],
      "services": {
        "appinvite_service": {
          "other_platform_oauth_client": [
            {
              "client_id": "947161704642-7133ti0jfb7go3db438fo1s1dijoimhv.apps.googleusercontent.com",
              "client_type": 3
            }
          ]
        }
      }
    }
  ],
  "configuration_version": "1"
}